###############################################################
#  Generated by:      Cadence Innovus 17.11-s080_1
#  OS:                Linux x86_64(Host ID localhost.localdomain)
#  Generated on:      Wed Nov  4 13:18:34 2020
#  Design:            iir_o1_n9
#  Command:           checkPlace checkplace.ss.rpt
###############################################################

## No violations found ##

## Summary: 
#########################################################
## Number of Placed Instances = 1331
## Number of Unplaced Instances = 0
## Placement Density:100.00%(1530/1530)
## Placement Density (including fixed std cells):100.00%(1530/1530)
